{
  "variables" : [ {
    "name" : "HOP_LENIENT_STRING_TO_NUMBER_CONVERSION",
    "value" : "N",
    "description" : "System wide flag to allow lenient string to number conversion for backward compatibility. If this\n            setting is set to \"Y\", an string\n            starting with digits will be converted successfully into a number. (example: 192.168.1.1 will be converted\n            into 192 or 192.168 or 192168\n            depending on the decimal and grouping symbol). The default (N) will be to throw an error if non-numeric\n            symbols are found in the string.\n        "
  }, {
    "name" : "HOP_COMPATIBILITY_DB_IGNORE_TIMEZONE",
    "value" : "N",
    "description" : "System wide flag to ignore timezone while writing date/timestamp value to the database.\n        "
  }, {
    "name" : "HOP_LOG_SIZE_LIMIT",
    "value" : "0",
    "description" : "The log size limit for all pipelines and workflows that don't have the \"log size limit\" property\n            set in their respective\n            properties.\n        "
  }, {
    "name" : "HOP_EMPTY_STRING_DIFFERS_FROM_NULL",
    "value" : "N",
    "description" : "NULL vs Empty String. If this setting is set to Y, an empty string and null are different.\n            Otherwise they are not.\n        "
  }, {
    "name" : "HOP_MAX_LOG_SIZE_IN_LINES",
    "value" : "0",
    "description" : "The maximum number of log lines that are kept internally by Hop. Set to 0 to keep all rows\n            (default)\n        "
  }, {
    "name" : "HOP_MAX_LOG_TIMEOUT_IN_MINUTES",
    "value" : "1440",
    "description" : "The maximum age (in minutes) of a log line while being kept internally by Hop. Set to 0 to keep all\n            rows indefinitely (default)\n        "
  }, {
    "name" : "HOP_MAX_WORKFLOW_TRACKER_SIZE",
    "value" : "5000",
    "description" : "The maximum number of workflow trackers kept in memory"
  }, {
    "name" : "HOP_MAX_ACTIONS_LOGGED",
    "value" : "5000",
    "description" : "The maximum number of action results kept in memory for logging purposes."
  }, {
    "name" : "HOP_MAX_LOGGING_REGISTRY_SIZE",
    "value" : "10000",
    "description" : "The maximum number of logging registry entries kept in memory for logging purposes."
  }, {
    "name" : "HOP_LOG_TAB_REFRESH_DELAY",
    "value" : "1000",
    "description" : "The hop log tab refresh delay."
  }, {
    "name" : "HOP_LOG_TAB_REFRESH_PERIOD",
    "value" : "1000",
    "description" : "The hop log tab refresh period."
  }, {
    "name" : "HOP_PLUGIN_CLASSES",
    "value" : null,
    "description" : "A comma delimited list of classes to scan for plugin annotations"
  }, {
    "name" : "HOP_PLUGIN_PACKAGES",
    "value" : null,
    "description" : "A comma delimited list of packages to scan for plugin annotations (warning: slow!!)"
  }, {
    "name" : "HOP_TRANSFORM_PERFORMANCE_SNAPSHOT_LIMIT",
    "value" : "0",
    "description" : "The maximum number of transform performance snapshots to keep in memory. Set to 0 to keep all\n            snapshots indefinitely (default)\n        "
  }, {
    "name" : "HOP_ROWSET_GET_TIMEOUT",
    "value" : "50",
    "description" : "The name of the variable that optionally contains an alternative rowset get timeout (in ms). This\n            only makes a difference for\n            extremely short lived pipelines.\n        "
  }, {
    "name" : "HOP_ROWSET_PUT_TIMEOUT",
    "value" : "50",
    "description" : "The name of the variable that optionally contains an alternative rowset put timeout (in ms). This\n            only makes a difference for\n            extremely short lived pipelines.\n        "
  }, {
    "name" : "HOP_CORE_TRANSFORMS_FILE",
    "value" : null,
    "description" : "The name of the project variable that will contain the alternative location of the\n            hop-transforms.xml file. You can use this to\n            customize the list of available internal transforms outside of the codebase.\n        "
  }, {
    "name" : "HOP_CORE_WORKFLOW_ACTIONS_FILE",
    "value" : null,
    "description" : "The name of the project variable that will contain the alternative location of the\n            hop-workflow-actions.xml file.\n        "
  }, {
    "name" : "HOP_SERVER_OBJECT_TIMEOUT_MINUTES",
    "value" : "1440",
    "description" : "This project variable will set a time-out after which waiting, completed or stopped pipelines and\n            workflows will be automatically\n            cleaned up. The default value is 1440 (one day).\n        "
  }, {
    "name" : "HOP_DISABLE_CONSOLE_LOGGING",
    "value" : "N",
    "description" : "Set this variable to Y to disable standard Hop logging to the console. (stdout)"
  }, {
    "name" : "HOP_REDIRECT_STDERR",
    "value" : "N",
    "description" : "Set this variable to Y to redirect stderr to Hop logging."
  }, {
    "name" : "HOP_REDIRECT_STDOUT",
    "value" : "N",
    "description" : "Set this variable to Y to redirect stdout to Hop logging."
  }, {
    "name" : "HOP_DEFAULT_NUMBER_FORMAT",
    "value" : null,
    "description" : "The name of the variable containing an alternative default number format"
  }, {
    "name" : "HOP_DEFAULT_BIGNUMBER_FORMAT",
    "value" : null,
    "description" : "The name of the variable containing an alternative default bignumber format"
  }, {
    "name" : "HOP_DEFAULT_INTEGER_FORMAT",
    "value" : null,
    "description" : "The name of the variable containing an alternative default integer format"
  }, {
    "name" : "HOP_DEFAULT_DATE_FORMAT",
    "value" : null,
    "description" : "The name of the variable containing an alternative default date format"
  }, {
    "name" : "HOP_DEFAULT_TIMESTAMP_FORMAT",
    "value" : null,
    "description" : "The name of the variable containing an alternative default timestamp format"
  }, {
    "name" : "HOP_DEFAULT_SERVLET_ENCODING",
    "value" : null,
    "description" : "Defines the default encoding for servlets, leave it empty to use Java default encoding\n        "
  }, {
    "name" : "HOP_FAIL_ON_LOGGING_ERROR",
    "value" : "N",
    "description" : "Set this variable to Y when you want the workflow/pipeline fail with an error when the related\n            logging process (e.g. to a database)\n            fails.\n        "
  }, {
    "name" : "HOP_AGGREGATION_MIN_NULL_IS_VALUED",
    "value" : "N",
    "description" : "Set this variable to Y to set the minimum to NULL if NULL is within an aggregate. Otherwise by\n            default NULL is ignored by the MIN\n            aggregate and MIN is set to the minimum value that is not NULL. See also the variable\n            HOP_AGGREGATION_ALL_NULLS_ARE_ZERO.\n        "
  }, {
    "name" : "HOP_AGGREGATION_ALL_NULLS_ARE_ZERO",
    "value" : "N",
    "description" : "Set this variable to Y to return 0 when all values within an aggregate are NULL. Otherwise by\n            default a NULL is returned when all\n            values are NULL.\n        "
  }, {
    "name" : "HOP_COMPATIBILITY_TEXT_FILE_OUTPUT_APPEND_NO_HEADER",
    "value" : "N",
    "description" : "Set this variable to Y for backward compatibility for the Text File Output transform. Setting this\n            to Ywill add no header row at all\n            when the append option is enabled, regardless if the file is existing or not.\n        "
  }, {
    "name" : "HOP_PASSWORD_ENCODER_PLUGIN",
    "value" : "Hop",
    "description" : "Specifies the password encoder plugin to use by ID (Hop is the default)."
  }, {
    "name" : "HOP_SYSTEM_HOSTNAME",
    "value" : null,
    "description" : "You can use this variable to speed up hostname lookup. Hostname lookup is performed by Hop so that\n            it is capable of logging the\n            server on which a workflow or pipeline is executed.\n        "
  }, {
    "name" : "HOP_SERVER_JETTY_ACCEPTORS",
    "value" : null,
    "description" : "A variable to configure jetty option: acceptors for Carte"
  }, {
    "name" : "HOP_SERVER_JETTY_ACCEPT_QUEUE_SIZE",
    "value" : null,
    "description" : "A variable to configure jetty option: acceptQueueSize for Carte"
  }, {
    "name" : "HOP_SERVER_JETTY_RES_MAX_IDLE_TIME",
    "value" : null,
    "description" : "A variable to configure jetty option: lowResourcesMaxIdleTime for Carte"
  }, {
    "name" : "HOP_COMPATIBILITY_MERGE_ROWS_USE_REFERENCE_STREAM_WHEN_IDENTICAL",
    "value" : "N",
    "description" : "Set this variable to Y for backward compatibility for the Merge Rows (diff) transform. Setting this\n            to Y will use the data from the\n            reference stream (instead of the comparison stream) in case the compared rows are identical.\n        "
  }, {
    "name" : "HOP_SPLIT_FIELDS_REMOVE_ENCLOSURE",
    "value" : "false",
    "description" : "Set this variable to false to preserve enclosure symbol after splitting the string in the Split\n            fields transform. Changing it to true\n            will remove first and last enclosure symbol from the resulting string chunks.\n        "
  }, {
    "name" : "HOP_ALLOW_EMPTY_FIELD_NAMES_AND_TYPES",
    "value" : "false",
    "description" : "Set this variable to TRUE to allow your pipeline to pass 'null' fields and/or empty types.\n        "
  }, {
    "name" : "HOP_GLOBAL_LOG_VARIABLES_CLEAR_ON_EXPORT",
    "value" : "false",
    "description" : "Set this variable to false to preserve global log variables defined in pipeline / workflow\n            Properties -> Log panel. Changing it to\n            true will clear it when export pipeline / workflow.\n        "
  }, {
    "name" : "HOP_FILE_OUTPUT_MAX_STREAM_COUNT",
    "value" : "1024",
    "description" : "This project variable is used by the Text File Output transform. It defines the max number of\n            simultaneously open files within the\n            transform. The transform will close/reopen files as necessary to insure the max is not exceeded\n        "
  }, {
    "name" : "HOP_FILE_OUTPUT_MAX_STREAM_LIFE",
    "value" : "0",
    "description" : "This project variable is used by the Text File Output transform. It defines the max number of\n            milliseconds between flushes of files\n            opened by the transform.\n        "
  }, {
    "name" : "HOP_USE_NATIVE_FILE_DIALOG",
    "value" : "N",
    "description" : "Set this value to Y if you want to use the system file open/save dialog when browsing files\n        "
  }, {
    "name" : "HOP_LICENSE_HEADER_FILE",
    "value" : null,
    "description" : "This is the name of the variable which when set should contains the path to a file which will be\n            included in the serialization of\n            pipelines and workflows\n        "
  }, {
    "name" : "HOP_LOG_MARK_MAPPINGS",
    "value" : "N",
    "description" : "Set this variable to Y to precede transform/action name in log lines with the complete path to the\n            transform/action. Useful\n            o perfectly identify where a problem happened in our process.\n        "
  } ],
  "googleCloud" : {
    "serviceAccountKeyFile" : ""
  },
  "LocaleDefault" : "pt_BR",
  "dropbox" : {
    "accessToken" : ""
  },
  "guiProperties" : {
    "FontFixedSize" : "9",
    "FontDefaultSize" : "9",
    "MaxUndo" : "100",
    "GraphColorR" : "255",
    "FontGraphSize" : "9",
    "IconSize" : "32",
    "BackgroundColorB" : "255",
    "FontNoteSize" : "9",
    "FontNoteStyle" : "0",
    "ShowOSLook" : "Y",
    "FontGraphName" : "Segoe UI",
    "FontFixedStyle" : "0",
    "FontDefaultName" : "Segoe UI",
    "GraphColorG" : "255",
    "UseGlobalFileBookmarks" : "Y",
    "FontDefaultStyle" : "0",
    "FontNoteName" : "Segoe UI",
    "GraphColorB" : "255",
    "FontFixedName" : "Monospaced",
    "BackgroundColorR" : "255",
    "BackgroundColorG" : "255",
    "WorkflowDialogStyle" : "RESIZE,MAX,MIN",
    "FontGraphStyle" : "0",
    "LineWidth" : "1",
    "ContextDialogShowCategories" : "Y",
    "ContextDialogFixedWidth" : "Y",
    "TabColorR" : "240",
    "TabColorG" : "240",
    "TabColorB" : "240",
    "MiddlePct" : "35",
    "CanvasGridSize" : "16",
    "DefaultPreviewSize" : "1000",
    "UseDBCache" : "Y",
    "OpenLastFile" : "Y",
    "AutoSave" : "N",
    "AutoSplit" : "N",
    "ShowCopyOrDistributeWarning" : "Y",
    "ShowCanvasGrid" : "Y",
    "ShowExitWarning" : "Y",
    "DarkMode" : "N",
    "ShowToolTips" : "Y",
    "AutoCollapseCoreObjectsTree" : "N",
    "ShowHelpToolTips" : "Y",
    "UseDoubleClickOnCanvas" : "N",
    "CustomParameterEnterOptionsRestartWarning" : "Y"
  },
  "googleDrive" : {
    "credentialsFile" : "",
    "tokensFolder" : ""
  },
  "projectsConfig" : {
    "enabled" : true,
    "projectMandatory" : true,
    "environmentMandatory" : false,
    "defaultProject" : "default",
    "defaultEnvironment" : "",
    "standardParentProject" : "default",
    "standardProjectsFolder" : "",
    "defaultProjectConfigFile" : "project-config.json",
    "projectConfigurations" : [ {
      "projectName" : "default",
      "projectHome" : "config/projects/default",
      "configFilename" : "project-config.json"
    }, {
      "projectName" : "samples",
      "projectHome" : "config/projects/samples",
      "configFilename" : "project-config.json"
    }, {
      "projectName" : "testenovo",
      "projectHome" : "C:\\Users\\leova\\Documents\\de\\hop\\config\\projects\\testenovo",
      "configFilename" : "project-config.json"
    } ],
    "lifecycleEnvironments" : [ ],
    "projectLifecycles" : [ ]
  },
  "azure" : {
    "account" : "",
    "key" : "",
    "blockIncrement" : "4096"
  }
}